{
	"information" : {
		"name" : "Flexible FAQ Accordion",
		"confluenceLink" : "NA",
		"description" : "This is the new layout exclusivly designed to use epi Flexible grid feature",
		"liveLink" : "NA",
		"notes" : "Author first choose the layout, then drop the items in it."
	},
	"cssClasses" : {
		"baseClass" : {
			"layout" : "never change and should not be empty"
		},

		"helperClasses" : {
			"single-section" : "use for one column layout",
			"two-section" : "use for three column layout",
			"three-section" : "use for three column layout",
			"four-section" : "use for four column layout",
			"align-left" : "choose this class to align everything left in porthole item defualt center align",
			"align-center" : "choose this class to align everything center (defualt) in porthole",
			"bg-light" : "choose this class to align everything right in porthole item",
			"bg-dark" : "choose this class to align everything right in porthole item",
			"bg-white" : "choose this class to align everything right in porthole item",
			"no-bottom-padding" : "bottom padding will become zero",
			"no-top-padding" : "top padding will become zero",
			"half-padding-top" : "top padding will become half of default",
			"half-padding-bottom" : "bottom padding will become half of default",
			"add-padding" : "add default padding of blade",
			"add-top-padding" : "add default top padding of blade",
			"add-bottom-padding" : "add default top padding of blade",
			"ghost-cta-button" : "choose this class to align everything right in porthole item",
			"background-image" : "choose this option apply bg image on layout level"
		}
	},
	"scriptClasses" : {
		"eventTrigger" : {
		},
		"interactionClasses" : {
		}
	}
}