{
	"information" : {
		"name" : "Accordian (LSN)",
		"confluenceLink" : "NA",
		"description" : "Lsn accordian component",
		"liveLink" : "NA",
		"notes" : "NA"
	},
	"cssClasses" : {
		"baseClass" : {
			"accordian" : "never change and should not be empty"
		},

		"helperClasses" : {
		}
	},
	"scriptClasses" : {
		"eventTrigger" : {
		},
		"interactionClasses" : {
		}
	}
}