{
	"information" : {
		"name" : "HC Standard Article",
		"confluenceLink" : "https://peppergroup.atlassian.net/wiki/pages/viewpage.action?pageId=49184966",
		"description" : "To display help centre content including article hero image. With ability to add additional element via embed code i.e video iframe, quiz.",
		"liveLink" : "https://www.pepper.com.au/pepper-au/lending/help-centre/getting-started/what-does-non-genuine-savings-mean",
		"notes" : "NA"
	},
	"cssClasses" : {
		"baseClass" : {
			"blog-news" : "never change and should not be empty"
		},

		"helperClasses" : {
			"bg-light" : "Use to change background color to light gray",
			"bg-dark" :  "Use to change background color to dark gray",
			"no-top-padding" : "use this class to overide top padding to zero",
			"no-bottom-padding" : "use this class to overide bottom padding to zero"
		}
	},
	"scriptClasses" : {
		"eventTrigger" : {
		},
		"interactionClasses" : {
		}
	}
}