{
	"information" : {
		"name" : "HC Related Articles Feature (by Category/Tag)",
		"confluenceLink" : "https://peppergroup.atlassian.net/wiki/pages/viewpage.action?pageId=49184966",
		"description" : "This component displays help centre articles by category or tag.",
		"liveLink" : "https://www.pepper.com.au/lending/help-centre",
		"notes" : "Pagination is handled from the backend, no front end functionality needed. Use the pagination classes solely for styling."
	},
	"cssClasses" : {
		"baseClass" : {
			"cards" : "never change and should not be empty"
		},

		"helperClasses" : {
			"no-top-padding" : "Use this class to overide top padding to zero.",
			"no-bottom-padding" : "Use this class to overide bottom padding to zero."
		}
	},
	"scriptClasses" : {
		"eventTrigger" : {
			"section.cards .card.featured" : "sorting functionality hooked with this class name"
		},
		"interactionClasses" : {
			".page-navigation" : "Used for the parent article block where paginated numbers will appear.",
			".pagination" : "Used to warp the ul-li block for the pagination styles.",
			".current": "Used to indicate current page that is being displayed on screen."
		}
	}
}