{
	"information" : {
		"name" : "Date Picker",
		"confluenceLink" : "n/a",
		"description" : "This component should use to get date input from user",
		"liveLink" : "n/a",
		"notes" : "Please note the extra attributes on date picker input field and review date picker html for all available options of date picker e.g. date range etc. etc."
	},
	"cssClasses" : {
		"baseClass" : {
			"date-picker" : "never change and should not be empty"
		},
		"helperClasses" : {
			"dob" : "Use this class, if you wish script to disable all the dates which is below 18 and above 90 years age, so user can't pick those dates",
			"validate-age" : "Use this class, if you need validate user age should be more than 18 years old, Note, don't use with dob class becuase then it will always return true"
		}
	},
	"scriptClasses" : {
		"eventTrigger" : {
			".date-picker" : "Bind date picker interaction and options set by html attributes tags"
		},
		"interactionClasses" : {
			"data-start-date" : "use this html attribute and declare date in it in YYYY-MM-DD, so user can't pick date before this date",
			"data-end-date" : "use this html attribute and declare date in it in YYYY-MM-DD, so user can't pick date after this date",
			"required" : "use this html attribute to make it mandatory"
		}
	}
}