{
	"information" : {
		"name" : "Download Documents Item List",
		"confluenceLink" : "https://peppergroup.atlassian.net/wiki/pages/viewpage.action?pageId=49184960",
		"description" : "Used to list documents and forms to download.",
		"liveLink" : "https://www.pepper.com.au/broker/white-label/documents",
		"notes" : "You must add a 'Download Documents Item' component for each individual document."
	},
	"cssClasses" : {
		"baseClass" : {
			"downloads" : "never change and should not be empty"
		},

		"helperClasses" : {
			"bg-light" : "Use to change background color",
			"bg-dark" :  "Use to change background color",
			"no-top-padding" : "Use this class to overide top padding to zero",
			"no-bottom-padding" : "Use this class to overide bottom padding to zero"
		}
	},
	"scriptClasses" : {
		"eventTrigger" : {
		},
		"interactionClasses" : {
		}
	}
}