{
	"information" : {
		"name" : "Hero video - Full header",
		"confluenceLink" : "https://peppergroup.atlassian.net/wiki/pages/viewpage.action?pageId=49184955",
		"description" : "Blade used when author has a video to display full screen. Ideal for campaign pages.",
		"liveLink" : "NA",
		"notes" : "NA"
	},
	"cssClasses" : {
		"baseClass" : {
			"hero-video" : "never change and should not be empty"
		},

		"helperClasses" : {
			"no-top-padding" : "Use this class to overide top padding to zero",
			"no-bottom-padding" : "Use this class to overide bottom padding to zero"
		}
	},
	"scriptClasses" : {
		"eventTrigger" : {
			".hero-video .video-wrapper" : "plays video"
		},
		"interactionClasses" : {
		}
	}
}