{
	"information" : {
		"name" : "News List",
		"confluenceLink" : "https://peppergroup.atlassian.net/wiki/pages/viewpage.action?pageId=49184966",
		"description" : "Used to display child 'News Items' in chronological order.",
		"liveLink" : "https://www.pepper.com.au/about/press-release",
		"notes" : "NA"
	},
	"cssClasses" : {
		"baseClass" : {
			"press-release" : "never change and should not be empty"
		},

		"helperClasses" : {
		}
	},
	"scriptClasses" : {
		"eventTrigger" : {
		},
		"interactionClasses" : {
			".page-navigation" : "Used for the parent article block where paginated numbers will appear.",
			".pagination" : "Used to warp the ul-li block for the pagination styles.",
			".current": "Used to indicate current page that is being displayed on screen."
		}
	}
}