{
	"information" : {
		"name" : "Promo Banner",
		"confluenceLink" : "NA",
		"description" : "Use component to display an image box on right, description and action button on left.",
		"liveLink" : "NA",
		"notes" : "Not in use currently"
	},
	"cssClasses" : {
		"baseClass" : {
			"promo-banner" : "never change and should not be empty"
		},

		"helperClasses" : {
			"no-top-padding" : "Use this class to overide top padding to zero",
			"no-bottom-padding" : "Use this class to overide bottom padding to zero",
			"with-overlay" : "Gives a overlay to the background image"
		}
	},
	"scriptClasses" : {
		"eventTrigger" : {
		},
		"interactionClasses" : {
		}
	}
}