{
	"information" : {
		"name" : "Short Form",
		"confluenceLink" : "https://peppergroup.atlassian.net/wiki/display/DigiMarkDocs/Form+Components",
		"description" : "The Short Form is used to build forms that are completed across a number of pages such as the Home Loan Pre-Approval Tool.",
		"liveLink" : "https://www.pepper.com.au/home-loan-pre-approval-tool",
		"notes" : "NA"
	},
	"cssClasses" : {
		"baseClass" : {
			"short-form" : "never change and should not be empty"
		},

		"helperClasses" : {
			"no-top-padding" : "Use this class to overide top padding to zero",
			"no-bottom-padding" : "Use this class to overide bottom padding to zero"
		}
	},
	"scriptClasses" : {
		"eventTrigger" : {
			".form-steps" : "creates navigation steps for the short form"
		},
		"interactionClasses" : {
			".active" : "toggle active slide"
		}
	}
}