{
	"information" : {
		"name" : "Video Player",
		"confluenceLink" : "https://peppergroup.atlassian.net/wiki/pages/viewpage.action?pageId=49184955",
		"description" : "Blade used to display one video from Youtube.",
		"liveLink" : "https://www.pepper.com.au/broker/education/sos",
		"notes" : "Use the iframe to add the video link wrapped around 'video-container' class."
	},
	"cssClasses" : {
		"baseClass" : {
			"video-blade" : "never change and should not be empty"
		},

		"helperClasses" : {
		}
	},
	"scriptClasses" : {
		"eventTrigger" : {
		},
		"interactionClasses" : {
		}
	}
}